<svg preserveAspectRatio="xMaxYMax slice" xmlns="http://www.w3.org/2000/svg" width="856.695" height="881.568" viewBox="0 0 856.695 881.568">
  <path fill="rgb(253,68,42)" fill-rule="evenodd" d="M264.74497251 706.98913909s-83.43567885-183.70612554-11.32434735-350.23963716c72.1113315-166.53351162-5.18541987-187.7269415-5.18541987-187.7269415s196.18081892-283.51557986 462.27925135 184.13367991S264.7449725 706.9891391 264.7449725 706.9891391z"/>
</svg>
