<svg xmlns="http://www.w3.org/2000/svg" width="20" height="12.5" viewBox="0 0 20 12.5">
  <path fill="none" stroke="rgb(253,211,61)" stroke-linecap="round" stroke-linejoin="round" stroke-width="3" d="M1.5 11L10 1.5l8.5 9.5"/>
</svg>
