<svg xmlns="http://www.w3.org/2000/svg" xmlns:xlink="http://www.w3.org/1999/xlink" width="19" height="19" viewBox="0 0 19 19">
  <defs>
    <rect id="rect-1" width="19" height="19" x="0" y="0"/>
    <mask id="mask-2" maskContentUnits="userSpaceOnUse" maskUnits="userSpaceOnUse">
      <rect width="19" height="19" x="0" y="0" fill="black"/>
      <use fill="white" xlink:href="#rect-1"/>
    </mask>
  </defs>
  <g>
    <use fill="none" xlink:href="#rect-1"/>
    <g mask="url(#mask-2)">
      <path fill="rgb(22,143,255)" fill-rule="evenodd" d="M19 4.46816667c-.7049584.30878279-1.45209434.5105095-2.21666667.5985.81123374-.48560268 1.41795347-1.24991195 1.70683334-2.15016667-.76201575.45516872-1.59635235.77647935-2.46683334.95-1.2029062-1.2838641-3.1183789-1.5992469-4.6694037-.76881783S9.00341913 5.69710095 9.405 7.41c-3.12525633-.1517217-6.03889073-1.62407981-8.01483333-4.05016667C.35633267 5.13528893.88201796 7.40863507 2.59033333 8.55c-.6171183-.01884872-1.22078722-.18496625-1.76066666-.4845v.05066667c.00405859 1.84606173 1.3064977 3.4344021 3.116 3.8-.33341912.09043875-.6773663.13622739-1.02283334.13616666-.24549753.00016839-.49044768-.0231602-.7315-.06966666.50867754 1.58253547 1.9670149 2.6667444 3.629 2.698C4.44446517 15.75928866 2.74576331 16.34374025.9975 16.34c-.31006953.00039531-.61989014-.01758063-.92783333-.05383333 1.77385047 1.14018514 3.83831165 1.74589234 5.947 1.74483333 7.144 0 11.0485-5.9185 11.0485-11.0485V6.479C17.82480003 5.92939295 18.48005333 5.24840139 19 4.46816667z"/>
    </g>
  </g>
</svg>
